…
###What is the average daily activity pattern?
  
To show the average steps taken for each interval, we'll make a new summary table grouping by interval.

```r
interval<- act %>%
      group_by(interval = interval) %>%
      summarize(count = n(),
                AverageSteps = mean(steps, na.rm =T)) %>%
      print()
```

```
## # A tibble: 288 x 3
##    interval count AverageSteps
##       <int> <int>        <dbl>
##  1        0    61    1.7169811
##  2        5    61    0.3396226
##  3       10    61    0.1320755
##  4       15    61    0.1509434
##  5       20    61    0.0754717
##  6       25    61    2.0943396
##  7       30    61    0.5283019
##  8       35    61    0.8679245
##  9       40    61    0.0000000
## 10       45    61    1.4716981
## # ... with 278 more rows
```
…
We'd like to test whether the average daily activity is greater on the weekend, so we'll create  another summary with dplry for the average steps by interval for weekend vs weekday.

```r
weekend<- actimp %>%
      group_by(day = type, interval = interval) %>%
      summarize(count = n(),
                meanSteps = mean(steps),
                totalSteps = sum(steps)) %>%
      print()
```

```
## # A tibble: 576 x 5
## # Groups:   day [?]
##        day interval count  meanSteps totalSteps
##     <fctr>    <int> <int>      <dbl>      <dbl>
##  1 weekday        0    44 2.29545455        101
##  2 weekday        5    44 0.40909091         18
##  3 weekday       10    44 0.15909091          7
##  4 weekday       15    44 0.18181818          8
##  5 weekday       20    44 0.09090909          4
##  6 weekday       25    44 2.75000000        121
##  7 weekday       30    44 0.75000000         33
##  8 weekday       35    44 1.15909091         51
##  9 weekday       40    44 0.00000000          0
## 10 weekday       45    44 1.75000000         77
## # ... with 566 more rows
```
…
